import uk.ac.uea.cmp.voip.*;
import java.net.*;
/**
 *
 * @author ras
 */
public class Main {

    /**
     * @param args the command line arguments
     */
    public static void main(String[] args) {
        // TODO code application logic here
        DatagramSocket2 dgs2;
        try {
            dgs2 = new DatagramSocket2();
        }
        catch (SocketException se) {}

        DatagramSocket3 dgs3;
        try {
            dgs3 = new DatagramSocket3();
        }
        catch (SocketException se) {}
    }

}